{
    "body": {
      "userID": [
        "user123"
      ],
      "channels": [
        "sms",
        "email"
      ],
      "subject": "TestSubject",
      "message": "testmessage.",
      "html_message": "\"\"\"<html>\r\n<head></head>\r\n<body>\r\n  <h1>Amazon Pinpoint Test (SDK for Python)</h1>\r\n  <p>This email was sent with\r\n    <a href='https:#aws.amazon.com/pinpoint/'>Amazon Pinpoint</a> using the\r\n    <a href='https:#aws.amazon.com/sdk-for-python/'>\r\n      AWS SDK for Python (Boto 3)</a>.</p>\r\n</body>\r\n</html>\r\n            \"\"\"",
      "payload": {
        "key": "value"
      }
    }
  }


{
  "userID": [
    "user123"
  ],
  "channels": [
    "push"
  ],
  "subject": "Post Shared!",
  "message": "User ECV just shared your post!",
  "payload": {
    "type": "SHARED_POST",
    "postid": "postid001"
  }
}

{
  "userID": [
    "user123"
  ],
  "channels": [
      "push"
  ],
   "html_message": "\"\"\"<html>\r\n<head></head>\r\n<body>\r\n  <h1>Amazon Pinpoint Test (SDK for Python)</h1>\r\n  <p>This email was sent with\r\n    <a href='https:#aws.amazon.com/pinpoint/'>Amazon Pinpoint</a> using the\r\n    <a href='https:#aws.amazon.com/sdk-for-python/'>\r\n      AWS SDK for Python (Boto 3)</a>.</p>\r\n</body>\r\n</html>\r\n            \"\"\"",
  "subject": "Post Shared!",
  "message": "User ECV just shared your post!",
  "payload": {
    "type": "SHARED_POST",
    "postid": "postid001"
  }
}